Groundwater Data Analysis
…
a- Summary Statistics

Nitrate (NO3) and Electrical Conductivity (EC) are very important parameters for drinking water quality, thus we need to do further interpretation. Then we will create a quality dataset for NO3 and EC only

qualitycleaned %>%
  group_by(Station.ID, Year, Parameter) %>%
  summarise(analysis_count = n(),
            mean = mean(Value),
            min = min(Value),
            max = max(Value)) %>%
  filter(analysis_count > 2, Parameter == "Nitrate") %>%
  arrange(desc(max))

## # A tibble: 948 x 7
## # Groups:   Station.ID, Year [948]
##    Station.ID  Year Parameter analysis_count  mean   min   max
##    <chr>      <int> <chr>              <int> <dbl> <dbl> <dbl>
##  1 AL1373      1982 Nitrate                6 236.  209.   276.
##  2 AL1148      1990 Nitrate                3 242.  227.   252.
##  3 AL1373      1983 Nitrate                3 199.  172.   239.
##  4 AL1484      1986 Nitrate                3 227.  217.   239.
##  5 AL1484      1987 Nitrate                3 176.   54.0  238.
##  6 AL1106      1988 Nitrate                3 199.  169.   231.
##  7 AL1484      1985 Nitrate                5 191.  181.   209.
##  8 AL2335      1996 Nitrate                3  89.1  30.4  206.
##  9 AL1899      1985 Nitrate               10  73.2   0.   206.
## 10 AL1106      1982 Nitrate                5 145.  119.   202.
## # ... with 938 more rows

qualitycleaned %>%
  group_by(Station.ID, Year, Parameter) %>%
  summarise(analysis_count = n(),
            mean = mean(Value),
            min = min(Value),
            max = max(Value)) %>%
  filter(analysis_count > 2, Parameter == "Electrical Conductivity") %>%
  arrange(desc(max))

## # A tibble: 1,102 x 7
## # Groups:   Station.ID, Year [1,102]
##    Station.ID  Year Parameter          analysis_count   mean    min    max
##    <chr>      <int> <chr>                       <int>  <dbl>  <dbl>  <dbl>
##  1 AL1325      1974 Electrical Conduc~              4 10975. 10300. 11400.
##  2 AL1701      1970 Electrical Conduc~              4  6270.  3080.  7800.
##  3 AL1898      1995 Electrical Conduc~             28  2851.  2520.  7670.
##  4 AL1084      1987 Electrical Conduc~              5  4662.  2910.  7300.
##  5 AL1148      1990 Electrical Conduc~              3  6333.  6000.  6700.
##  6 AL1526      1980 Electrical Conduc~              3  5020.  4007.  6280.
##  7 AL1007      1988 Electrical Conduc~              6  5967.  5500.  6200.
##  8 AL1024      1989 Electrical Conduc~              4  5975.  5600.  6200.
##  9 AL1024      1988 Electrical Conduc~              6  5500.  4900.  6100.
## 10 AL2335      1996 Electrical Conduc~              3  5880.  5580.  6030.
## # ... with 1,092 more rows
…
wlcleaned <- waterlevel %>% filter(!is.na(DEPTH_TO_WATER), STATION_ID != "")

wl_count <- wlcleaned %>%
  group_by(STATION_ID) %>%
  summarise(analysis_count = n())%>%
  filter(analysis_count > 120)

wlcleaned %>% 
  group_by(STATION_ID) %>%
  summarise(minwl = min(DEPTH_TO_WATER, na.rm=TRUE),
            maxwl = max(DEPTH_TO_WATER, na.rm=TRUE),
            meanwl = mean(DEPTH_TO_WATER, na.rm=TRUE))

## # A tibble: 84 x 4
##    STATION_ID minwl maxwl meanwl
##    <chr>      <dbl> <dbl>  <dbl>
##  1 AL1005      74.2 174.   124. 
##  2 AL1006      92.5 104.    94.2
##  3 AL1022      82.2  96.4   87.9
##  4 AL1040      84.8 110.    96.4
##  5 AL1041      49.5 131.    63.4
##  6 AL1043      45.6  94.1   61.0
##  7 AL1179      45.2  63.1   50.3
##  8 AL1230      48.2  65.6   56.8
##  9 AL1300      20.7  71.4   40.4
## 10 AL1351      20.2  71.9   30.4
## # ... with 74 more rows
…
